/*
WARNING: Do NOT edit the input and output ports in this file in a text
editor if you plan to continue editing the block that represents it in
the Block Editor! File corruption is VERY likely to occur.
*/
/*
Copyright (C) 1991-2013 Altera Corporation
Your use of Altera Corporation's design tools, logic functions 
and other software and tools, and its AMPP partner logic 
functions, and any output files from any of the foregoing 
(including device programming or simulation files), and any 
associated documentation or information are expressly subject 
to the terms and conditions of the Altera Program License 
Subscription Agreement, Altera MegaCore Function License 
Agreement, or other applicable license agreement, including, 
without limitation, that your use is for the sole purpose of 
programming logic devices manufactured by Altera and sold by 
Altera or its authorized distributors.  Please refer to the 
applicable agreement for further details.
*/
(header "graphic" (version "1.4"))
(pin
	(input)
	(rect 88 296 256 312)
	(text "INPUT" (rect 125 0 153 10)(font "Arial" (font_size 6)))
	(text "SW[3..0]" (rect 5 0 49 12)(font "Arial" ))
	(pt 168 8)
	(drawing
		(line (pt 84 12)(pt 109 12))
		(line (pt 84 4)(pt 109 4))
		(line (pt 113 8)(pt 168 8))
		(line (pt 84 12)(pt 84 4))
		(line (pt 109 4)(pt 113 8))
		(line (pt 109 12)(pt 113 8))
	)
	(text "VCC" (rect 128 7 148 17)(font "Arial" (font_size 6)))
	(annotation_block (location)(rect 8 168 64 184))
)
(pin
	(input)
	(rect 88 352 256 368)
	(text "INPUT" (rect 125 0 153 10)(font "Arial" (font_size 6)))
	(text "KEY[1..0]" (rect 5 0 54 12)(font "Arial" ))
	(pt 168 8)
	(drawing
		(line (pt 84 12)(pt 109 12))
		(line (pt 84 4)(pt 109 4))
		(line (pt 113 8)(pt 168 8))
		(line (pt 84 12)(pt 84 4))
		(line (pt 109 4)(pt 113 8))
		(line (pt 109 12)(pt 113 8))
	)
	(text "VCC" (rect 128 7 148 17)(font "Arial" (font_size 6)))
	(annotation_block (location)(rect 8 424 64 440))
)
(pin
	(output)
	(rect 632 304 808 320)
	(text "OUTPUT" (rect 1 0 39 10)(font "Arial" (font_size 6)))
	(text "LED[7..0]" (rect 90 0 137 12)(font "Arial" ))
	(pt 0 8)
	(drawing
		(line (pt 0 8)(pt 52 8))
		(line (pt 52 4)(pt 78 4))
		(line (pt 52 12)(pt 78 12))
		(line (pt 52 12)(pt 52 4))
		(line (pt 78 4)(pt 82 8))
		(line (pt 82 8)(pt 78 12))
		(line (pt 78 12)(pt 82 8))
	)
	(annotation_block (location)(rect 808 320 864 336))
)
(symbol
	(rect 344 280 528 360)
	(text "process" (rect 5 0 43 12)(font "Arial" ))
	(text "inst" (rect 8 64 25 76)(font "Arial" ))
	(port
		(pt 0 32)
		(input)
		(text "SW[3..0]" (rect 0 0 43 12)(font "Arial" ))
		(text "SW[3..0]" (rect 21 27 64 39)(font "Arial" ))
		(line (pt 0 32)(pt 16 32)(line_width 3))
	)
	(port
		(pt 0 48)
		(input)
		(text "KEY[1..0]" (rect 0 0 48 12)(font "Arial" ))
		(text "KEY[1..0]" (rect 21 43 69 55)(font "Arial" ))
		(line (pt 0 48)(pt 16 48)(line_width 3))
	)
	(port
		(pt 184 32)
		(output)
		(text "LED[7..0]" (rect 0 0 47 12)(font "Arial" ))
		(text "LED[7..0]" (rect 124 27 171 39)(font "Arial" ))
		(line (pt 184 32)(pt 168 32)(line_width 3))
	)
	(drawing
		(rectangle (rect 16 16 168 64))
	)
)
(connector
	(pt 256 304)
	(pt 344 304)
	(bus)
)
(connector
	(pt 344 304)
	(pt 344 312)
	(bus)
)
(connector
	(pt 256 360)
	(pt 344 360)
	(bus)
)
(connector
	(pt 344 360)
	(pt 344 328)
	(bus)
)
(connector
	(pt 528 312)
	(pt 632 312)
	(bus)
)
